{
  "name": "MediQuo-Remote",
  "version": "0.25.5",
  "summary": "MediQuo Remote Framework for iOS",
  "authors": {
    "Medipremium, S.L.": "medipremium@gmail.com"
  },
  "license": {
    "type": "Copyright",
    "text": "Copyright © 2018 Medipremium S.L. All rights reserved."
  },
  "source": {
    "http": "https://mediquo.bintray.com/generic/MediQuoRemote_0.25.5.zip"
  },
  "homepage": "https://www.medipremium.com",
  "platforms": {
    "ios": "10.0"
  },
  "swift_version": "4.1",
  "module_name": "MediQuoRemote",
  "ios": {
    "frameworks": [
      "Foundation",
      "UIKit"
    ],
    "vendored_frameworks": "MediQuo/MediQuoRemote.framework",
    "dependencies": {
      "MediQuo-Core": [
        "0.25.5"
      ],
      "MediQuo-Schema": [
        "0.25.5"
      ],
      "MediQuo-Controller": [
        "0.25.5"
      ],
      "AlamofireImage": [
        "3.3.1"
      ],
      "Alamofire": [
        "4.7.2"
      ]
    }
  }
}
