{
  "name": "MediQuo-Schema",
  "version": "0.35.102",
  "summary": "MediQuo Schema Framework for iOS",
  "authors": {
    "Medipremium, S.L.": "medipremium@gmail.com"
  },
  "license": {
    "type": "Copyright",
    "text": "Copyright © 2019 Medipremium S.L. All rights reserved."
  },
  "source": {
    "http": "https://mediquo.bintray.com/generic/MediQuoSchema_0.35.102.zip"
  },
  "homepage": "https://www.medipremium.com",
  "platforms": {
    "ios": "11.0"
  },
  "swift_version": "4.2",
  "module_name": "MediQuoSchema",
  "ios": {
    "frameworks": [
      "Foundation",
      "UIKit",
      "AdSupport"
    ],
    "vendored_frameworks": "MediQuo/MediQuoSchema.framework",
    "dependencies": {
      "MediQuo-Core": [
        "0.35.102"
      ]
    }
  }
}
