{
  "name": "MediQuoServices",
  "version": "0.4.3",
  "summary": "MediQuoServices Framework for iOS",
  "authors": {
    "Medipremium, S.L.": "medipremium@gmail.com"
  },
  "license": {
    "type": "Copyright",
    "text": "Copyright © 2018 Medipremium S.L. All rights reserved."
  },
  "source": {
    "http": "https://mediquo.bintray.com/generic/MediQuoServices_0.4.3.zip"
  },
  "homepage": "https://www.medipremium.com",
  "platforms": {
    "ios": "11.0"
  },
  "swift_version": "4.2",
  "module_name": "MediQuoServices",
  "ios": {
    "frameworks": [
      "Foundation",
      "CoreLocation",
      "UIKit"
    ],
    "vendored_frameworks": "MediQuo/MediQuoServices.framework",
    "dependencies": {
      "MediQuo-Core": [
        "0.27.3"
      ],
      "MediQuo-Schema": [
        "0.27.3"
      ],
      "MediQuo-Controller": [
        "0.27.3"
      ],
      "MediQuo-Storage": [
        "0.27.3"
      ],
      "MediQuo-Remote": [
        "0.27.3"
      ],
      "ObjectMapper": [
        "3.4.1"
      ],
      "AlamofireImage": [
        "3.4.0"
      ],
      "Alamofire": [
        "4.7.2"
      ],
      "AlamofireObjectMapper": [
        "5.0.0"
      ],
      "SwiftyJSON": [
        "4.0.0"
      ]
    }
  }
}
